<svg width="26" height="21" viewBox="0 0 26 21" fill="none" xmlns="http://www.w3.org/2000/svg">
<path d="M25 19.3422L16.1579 10.5001L25 1.65795M9.84211 19.3422L1 10.5001L9.84211 1.65795" stroke="#0000CC" stroke-width="1.5" stroke-linecap="round" stroke-linejoin="round"/>
</svg>
