<svg width="490" height="535" viewBox="0 0 490 535" fill="none" xmlns="http://www.w3.org/2000/svg">
<g clip-path="url(#clip0_2406_2123)" filter="url(#filter0_ddd_2406_2123)">
<path fill-rule="evenodd" clip-rule="evenodd" d="M141.828 429.794C141.862 430.906 122.713 399.289 102.428 368.887C102.628 356.698 104.516 326.767 122.994 307.349C139.195 290.325 155.524 279.638 177.448 277.985C204.729 275.928 228.223 284.493 252.475 264.963C277.022 245.197 259.879 211.808 267.535 185.253C276.14 155.4 298.509 146.008 319.873 131.174C317.876 122.487 314.899 114.12 312.379 105.624C337.466 102.196 363.276 101.331 388.538 99.39C379.313 128.525 366.631 155.205 355.769 183.467C349.822 179.625 346.196 173.683 342.131 167.607C294.314 182.04 317.383 255.399 296.698 292.048C269.521 340.197 195.47 314.39 167.242 351.989C154.377 369.124 140.99 403.379 141.828 429.794Z" fill="#FEF5E8" stroke="#FE9900" stroke-width="4" stroke-miterlimit="1.5" stroke-linecap="round" stroke-linejoin="round"/>
<path d="M359.752 101.379C358.819 125.522 353.681 155.952 351.502 179.986" stroke="#0000CC" stroke-miterlimit="1.5" stroke-linecap="round" stroke-linejoin="round"/>
<path d="M334.213 103.242C335.374 125.34 332.811 149.882 332.586 171.723" stroke="#0000CC" stroke-miterlimit="1.5" stroke-linecap="round" stroke-linejoin="round"/>
<path d="M311.191 136.96C312.268 157.113 314.394 181.414 312.701 201.631" stroke="#0000CC" stroke-miterlimit="1.5" stroke-linecap="round" stroke-linejoin="round"/>
<path d="M299.473 286.291C299.148 266.486 295.778 244.091 294.484 224.36C292.882 199.881 293.098 175.949 290.156 151.558" stroke="#0000CC" stroke-miterlimit="1.5" stroke-linecap="round" stroke-linejoin="round"/>
<path d="M265.521 209.508C268.436 242.549 276.406 277.556 279.654 310.558" stroke="#0000CC" stroke-miterlimit="1.5" stroke-linecap="round" stroke-linejoin="round"/>
<path d="M245.02 270.163C245.711 286.116 249.002 306.303 250.777 322.197" stroke="#0000CC" stroke-miterlimit="1.5" stroke-linecap="round" stroke-linejoin="round"/>
<path d="M217.627 277.969C217.904 294.978 220.723 310.802 221.371 327.769" stroke="#0000CC" stroke-miterlimit="1.5" stroke-linecap="round" stroke-linejoin="round"/>
<path d="M190.516 277.672C190.566 295.038 191.443 316.899 193.64 334.153" stroke="#0000CC" stroke-miterlimit="1.5" stroke-linecap="round" stroke-linejoin="round"/>
<path d="M163.611 280.407C163.121 301.996 167.427 329.511 167.865 351.142" stroke="#0000CC" stroke-miterlimit="1.5" stroke-linecap="round" stroke-linejoin="round"/>
<path d="M136.521 294.845C137.469 326.378 145.802 361.657 147.517 393.062" stroke="#0000CC" stroke-miterlimit="1.5" stroke-linecap="round" stroke-linejoin="round"/>
<path d="M115.791 316.703C117.422 337.192 121.16 359.415 124.083 379.71C125.262 387.9 127.596 400.227 128.12 408.52" stroke="#0000CC" stroke-miterlimit="1.5" stroke-linecap="round" stroke-linejoin="round"/>
</g>
<defs>
<filter id="filter0_ddd_2406_2123" x="0" y="0" width="490" height="534.615" filterUnits="userSpaceOnUse" color-interpolation-filters="sRGB">
<feFlood flood-opacity="0" result="BackgroundImageFix"/>
<feColorMatrix in="SourceAlpha" type="matrix" values="0 0 0 0 0 0 0 0 0 0 0 0 0 0 0 0 0 0 127 0" result="hardAlpha"/>
<feOffset dx="1" dy="2"/>
<feGaussianBlur stdDeviation="2.5"/>
<feComposite in2="hardAlpha" operator="out"/>
<feColorMatrix type="matrix" values="0 0 0 0 0 0 0 0 0 0 0 0 0 0 0 0 0 0 0.1 0"/>
<feBlend mode="normal" in2="BackgroundImageFix" result="effect1_dropShadow_2406_2123"/>
<feColorMatrix in="SourceAlpha" type="matrix" values="0 0 0 0 0 0 0 0 0 0 0 0 0 0 0 0 0 0 127 0" result="hardAlpha"/>
<feOffset dx="1" dy="-0.5"/>
<feGaussianBlur stdDeviation="2"/>
<feComposite in2="hardAlpha" operator="out"/>
<feColorMatrix type="matrix" values="0 0 0 0 0 0 0 0 0 0 0 0 0 0 0 0 0 0 0.25 0"/>
<feBlend mode="normal" in2="effect1_dropShadow_2406_2123" result="effect2_dropShadow_2406_2123"/>
<feColorMatrix in="SourceAlpha" type="matrix" values="0 0 0 0 0 0 0 0 0 0 0 0 0 0 0 0 0 0 127 0" result="hardAlpha"/>
<feOffset dy="2.5"/>
<feGaussianBlur stdDeviation="50"/>
<feColorMatrix type="matrix" values="0 0 0 0 0.996078 0 0 0 0 0.6 0 0 0 0 0 0 0 0 0.15 0"/>
<feBlend mode="normal" in2="effect2_dropShadow_2406_2123" result="effect3_dropShadow_2406_2123"/>
<feBlend mode="normal" in="SourceGraphic" in2="effect3_dropShadow_2406_2123" result="shape"/>
</filter>
<clipPath id="clip0_2406_2123">
<rect width="290" height="334.615" fill="white" transform="translate(100 97.5)"/>
</clipPath>
</defs>
</svg>
